1008 atomic
surface 96.89148 0.00000 95.89752
C 0.0 0.0 0.0
C 0.0 0.0 2.66382
C 2.30694 0.0 3.99573
C 2.30694 0.0 6.65955
C 4.61388 0.0 0.0
C 4.61388 0.0 2.66382
C 6.92082 0.0 3.99573
C 6.92082 0.0 6.65955
C 9.22776 0.0 0.0
C 9.22776 0.0 2.66382
C 11.5347 0.0 3.99573
C 11.5347 0.0 6.65955
C 13.84164 0.0 0.0
C 13.84164 0.0 2.66382
C 16.14858 0.0 3.99573
C 16.14858 0.0 6.65955
C 18.45552 0.0 0.0
C 18.45552 0.0 2.66382
C 20.76246 0.0 3.99573
C 20.76246 0.0 6.65955
C 23.0694 0.0 0.0
C 23.0694 0.0 2.66382
C 25.37634 0.0 3.99573
C 25.37634 0.0 6.65955
C 27.68328 0.0 0.0
C 27.68328 0.0 2.66382
C 29.99022 0.0 3.99573
C 29.99022 0.0 6.65955
C 32.29716 0.0 0.0
C 32.29716 0.0 2.66382
C 34.6041 0.0 3.99573
C 34.6041 0.0 6.65955
C 36.91104 0.0 0.0
C 36.91104 0.0 2.66382
C 39.21798 0.0 3.99573
C 39.21798 0.0 6.65955
C 41.52492 0.0 0.0
C 41.52492 0.0 2.66382
C 43.83186 0.0 3.99573
C 43.83186 0.0 6.65955
C 46.1388 0.0 0.0
C 46.1388 0.0 2.66382
C 48.44574 0.0 3.99573
C 48.44574 0.0 6.65955
C 50.75268 0.0 0.0
C 50.75268 0.0 2.66382
C 53.05962 0.0 3.99573
C 53.05962 0.0 6.65955
C 55.36656 0.0 0.0
C 55.36656 0.0 2.66382
C 57.6735 0.0 3.99573
C 57.6735 0.0 6.65955
C 59.98044 0.0 0.0
C 59.98044 0.0 2.66382
C 62.28738 0.0 3.99573
C 62.28738 0.0 6.65955
C 64.59432 0.0 0.0
C 64.59432 0.0 2.66382
C 66.90126 0.0 3.99573
C 66.90126 0.0 6.65955
C 69.2082 0.0 0.0
C 69.2082 0.0 2.66382
C 71.51514 0.0 3.99573
C 71.51514 0.0 6.65955
C 73.82208 0.0 0.0
C 73.82208 0.0 2.66382
C 76.12902 0.0 3.99573
C 76.12902 0.0 6.65955
C 78.43596 0.0 0.0
C 78.43596 0.0 2.66382
C 80.7429 0.0 3.99573
C 80.7429 0.0 6.65955
C 83.04984 0.0 0.0
C 83.04984 0.0 2.66382
C 85.35678 0.0 3.99573
C 85.35678 0.0 6.65955
C 87.66372 0.0 0.0
C 87.66372 0.0 2.66382
C 89.97066 0.0 3.99573
C 89.97066 0.0 6.65955
C 92.2776 0.0 0.0
C 92.2776 0.0 2.66382
C 94.58454 0.0 3.99573
C 94.58454 0.0 6.65955
C 0.0 0.0 7.99146
C 0.0 0.0 10.65528
C 2.30694 0.0 11.98719
C 2.30694 0.0 14.65101
C 4.61388 0.0 7.99146
C 4.61388 0.0 10.65528
C 6.92082 0.0 11.98719
C 6.92082 0.0 14.65101
C 9.22776 0.0 7.99146
C 9.22776 0.0 10.65528
C 11.5347 0.0 11.98719
C 11.5347 0.0 14.65101
C 13.84164 0.0 7.99146
C 13.84164 0.0 10.65528
C 16.14858 0.0 11.98719
C 16.14858 0.0 14.65101
C 18.45552 0.0 7.99146
C 18.45552 0.0 10.65528
C 20.76246 0.0 11.98719
C 20.76246 0.0 14.65101
C 23.0694 0.0 7.99146
C 23.0694 0.0 10.65528
C 25.37634 0.0 11.98719
C 25.37634 0.0 14.65101
C 27.68328 0.0 7.99146
C 27.68328 0.0 10.65528
C 29.99022 0.0 11.98719
C 29.99022 0.0 14.65101
C 32.29716 0.0 7.99146
C 32.29716 0.0 10.65528
C 34.6041 0.0 11.98719
C 34.6041 0.0 14.65101
C 36.91104 0.0 7.99146
C 36.91104 0.0 10.65528
C 39.21798 0.0 11.98719
C 39.21798 0.0 14.65101
C 41.52492 0.0 7.99146
C 41.52492 0.0 10.65528
C 43.83186 0.0 11.98719
C 43.83186 0.0 14.65101
C 46.1388 0.0 7.99146
C 46.1388 0.0 10.65528
C 48.44574 0.0 11.98719
C 48.44574 0.0 14.65101
C 50.75268 0.0 7.99146
C 50.75268 0.0 10.65528
C 53.05962 0.0 11.98719
C 53.05962 0.0 14.65101
C 55.36656 0.0 7.99146
C 55.36656 0.0 10.65528
C 57.6735 0.0 11.98719
C 57.6735 0.0 14.65101
C 59.98044 0.0 7.99146
C 59.98044 0.0 10.65528
C 62.28738 0.0 11.98719
C 62.28738 0.0 14.65101
C 64.59432 0.0 7.99146
C 64.59432 0.0 10.65528
C 66.90126 0.0 11.98719
C 66.90126 0.0 14.65101
C 69.2082 0.0 7.99146
C 69.2082 0.0 10.65528
C 71.51514 0.0 11.98719
C 71.51514 0.0 14.65101
C 73.82208 0.0 7.99146
C 73.82208 0.0 10.65528
C 76.12902 0.0 11.98719
C 76.12902 0.0 14.65101
C 78.43596 0.0 7.99146
C 78.43596 0.0 10.65528
C 80.7429 0.0 11.98719
C 80.7429 0.0 14.65101
C 83.04984 0.0 7.99146
C 83.04984 0.0 10.65528
C 85.35678 0.0 11.98719
C 85.35678 0.0 14.65101
C 87.66372 0.0 7.99146
C 87.66372 0.0 10.65528
C 89.97066 0.0 11.98719
C 89.97066 0.0 14.65101
C 92.2776 0.0 7.99146
C 92.2776 0.0 10.65528
C 94.58454 0.0 11.98719
C 94.58454 0.0 14.65101
C 0.0 0.0 15.98292
C 0.0 0.0 18.64674
C 2.30694 0.0 19.97865
C 2.30694 0.0 22.64247
C 4.61388 0.0 15.98292
C 4.61388 0.0 18.64674
C 6.92082 0.0 19.97865
C 6.92082 0.0 22.64247
C 9.22776 0.0 15.98292
C 9.22776 0.0 18.64674
C 11.5347 0.0 19.97865
C 11.5347 0.0 22.64247
C 13.84164 0.0 15.98292
C 13.84164 0.0 18.64674
C 16.14858 0.0 19.97865
C 16.14858 0.0 22.64247
C 18.45552 0.0 15.98292
C 18.45552 0.0 18.64674
C 20.76246 0.0 19.97865
C 20.76246 0.0 22.64247
C 23.0694 0.0 15.98292
C 23.0694 0.0 18.64674
C 25.37634 0.0 19.97865
C 25.37634 0.0 22.64247
C 27.68328 0.0 15.98292
C 27.68328 0.0 18.64674
C 29.99022 0.0 19.97865
C 29.99022 0.0 22.64247
C 32.29716 0.0 15.98292
C 32.29716 0.0 18.64674
C 34.6041 0.0 19.97865
C 34.6041 0.0 22.64247
C 36.91104 0.0 15.98292
C 36.91104 0.0 18.64674
C 39.21798 0.0 19.97865
C 39.21798 0.0 22.64247
C 41.52492 0.0 15.98292
C 41.52492 0.0 18.64674
C 43.83186 0.0 19.97865
C 43.83186 0.0 22.64247
C 46.1388 0.0 15.98292
C 46.1388 0.0 18.64674
C 48.44574 0.0 19.97865
C 48.44574 0.0 22.64247
C 50.75268 0.0 15.98292
C 50.75268 0.0 18.64674
C 53.05962 0.0 19.97865
C 53.05962 0.0 22.64247
C 55.36656 0.0 15.98292
C 55.36656 0.0 18.64674
C 57.6735 0.0 19.97865
C 57.6735 0.0 22.64247
C 59.98044 0.0 15.98292
C 59.98044 0.0 18.64674
C 62.28738 0.0 19.97865
C 62.28738 0.0 22.64247
C 64.59432 0.0 15.98292
C 64.59432 0.0 18.64674
C 66.90126 0.0 19.97865
C 66.90126 0.0 22.64247
C 69.2082 0.0 15.98292
C 69.2082 0.0 18.64674
C 71.51514 0.0 19.97865
C 71.51514 0.0 22.64247
C 73.82208 0.0 15.98292
C 73.82208 0.0 18.64674
C 76.12902 0.0 19.97865
C 76.12902 0.0 22.64247
C 78.43596 0.0 15.98292
C 78.43596 0.0 18.64674
C 80.7429 0.0 19.97865
C 80.7429 0.0 22.64247
C 83.04984 0.0 15.98292
C 83.04984 0.0 18.64674
C 85.35678 0.0 19.97865
C 85.35678 0.0 22.64247
C 87.66372 0.0 15.98292
C 87.66372 0.0 18.64674
C 89.97066 0.0 19.97865
C 89.97066 0.0 22.64247
C 92.2776 0.0 15.98292
C 92.2776 0.0 18.64674
C 94.58454 0.0 19.97865
C 94.58454 0.0 22.64247
C 0.0 0.0 23.97438
C 0.0 0.0 26.6382
C 2.30694 0.0 27.97011
C 2.30694 0.0 30.63393
C 4.61388 0.0 23.97438
C 4.61388 0.0 26.6382
C 6.92082 0.0 27.97011
C 6.92082 0.0 30.63393
C 9.22776 0.0 23.97438
C 9.22776 0.0 26.6382
C 11.5347 0.0 27.97011
C 11.5347 0.0 30.63393
C 13.84164 0.0 23.97438
C 13.84164 0.0 26.6382
C 16.14858 0.0 27.97011
C 16.14858 0.0 30.63393
C 18.45552 0.0 23.97438
C 18.45552 0.0 26.6382
C 20.76246 0.0 27.97011
C 20.76246 0.0 30.63393
C 23.0694 0.0 23.97438
C 23.0694 0.0 26.6382
C 25.37634 0.0 27.97011
C 25.37634 0.0 30.63393
C 27.68328 0.0 23.97438
C 27.68328 0.0 26.6382
C 29.99022 0.0 27.97011
C 29.99022 0.0 30.63393
C 32.29716 0.0 23.97438
C 32.29716 0.0 26.6382
C 34.6041 0.0 27.97011
C 34.6041 0.0 30.63393
C 36.91104 0.0 23.97438
C 36.91104 0.0 26.6382
C 39.21798 0.0 27.97011
C 39.21798 0.0 30.63393
C 41.52492 0.0 23.97438
C 41.52492 0.0 26.6382
C 43.83186 0.0 27.97011
C 43.83186 0.0 30.63393
C 46.1388 0.0 23.97438
C 46.1388 0.0 26.6382
C 48.44574 0.0 27.97011
C 48.44574 0.0 30.63393
C 50.75268 0.0 23.97438
C 50.75268 0.0 26.6382
C 53.05962 0.0 27.97011
C 53.05962 0.0 30.63393
C 55.36656 0.0 23.97438
C 55.36656 0.0 26.6382
C 57.6735 0.0 27.97011
C 57.6735 0.0 30.63393
C 59.98044 0.0 23.97438
C 59.98044 0.0 26.6382
C 62.28738 0.0 27.97011
C 62.28738 0.0 30.63393
C 64.59432 0.0 23.97438
C 64.59432 0.0 26.6382
C 66.90126 0.0 27.97011
C 66.90126 0.0 30.63393
C 69.2082 0.0 23.97438
C 69.2082 0.0 26.6382
C 71.51514 0.0 27.97011
C 71.51514 0.0 30.63393
C 73.82208 0.0 23.97438
C 73.82208 0.0 26.6382
C 76.12902 0.0 27.97011
C 76.12902 0.0 30.63393
C 78.43596 0.0 23.97438
C 78.43596 0.0 26.6382
C 80.7429 0.0 27.97011
C 80.7429 0.0 30.63393
C 83.04984 0.0 23.97438
C 83.04984 0.0 26.6382
C 85.35678 0.0 27.97011
C 85.35678 0.0 30.63393
C 87.66372 0.0 23.97438
C 87.66372 0.0 26.6382
C 89.97066 0.0 27.97011
C 89.97066 0.0 30.63393
C 92.2776 0.0 23.97438
C 92.2776 0.0 26.6382
C 94.58454 0.0 27.97011
C 94.58454 0.0 30.63393
C 0.0 0.0 31.96584
C 0.0 0.0 34.62966
C 2.30694 0.0 35.96157
C 2.30694 0.0 38.62539
C 4.61388 0.0 31.96584
C 4.61388 0.0 34.62966
C 6.92082 0.0 35.96157
C 6.92082 0.0 38.62539
C 9.22776 0.0 31.96584
C 9.22776 0.0 34.62966
C 11.5347 0.0 35.96157
C 11.5347 0.0 38.62539
C 13.84164 0.0 31.96584
C 13.84164 0.0 34.62966
C 16.14858 0.0 35.96157
C 16.14858 0.0 38.62539
C 18.45552 0.0 31.96584
C 18.45552 0.0 34.62966
C 20.76246 0.0 35.96157
C 20.76246 0.0 38.62539
C 23.0694 0.0 31.96584
C 23.0694 0.0 34.62966
C 25.37634 0.0 35.96157
C 25.37634 0.0 38.62539
C 27.68328 0.0 31.96584
C 27.68328 0.0 34.62966
C 29.99022 0.0 35.96157
C 29.99022 0.0 38.62539
C 32.29716 0.0 31.96584
C 32.29716 0.0 34.62966
C 34.6041 0.0 35.96157
C 34.6041 0.0 38.62539
C 36.91104 0.0 31.96584
C 36.91104 0.0 34.62966
C 39.21798 0.0 35.96157
C 39.21798 0.0 38.62539
C 41.52492 0.0 31.96584
C 41.52492 0.0 34.62966
C 43.83186 0.0 35.96157
C 43.83186 0.0 38.62539
C 46.1388 0.0 31.96584
C 46.1388 0.0 34.62966
C 48.44574 0.0 35.96157
C 48.44574 0.0 38.62539
C 50.75268 0.0 31.96584
C 50.75268 0.0 34.62966
C 53.05962 0.0 35.96157
C 53.05962 0.0 38.62539
C 55.36656 0.0 31.96584
C 55.36656 0.0 34.62966
C 57.6735 0.0 35.96157
C 57.6735 0.0 38.62539
C 59.98044 0.0 31.96584
C 59.98044 0.0 34.62966
C 62.28738 0.0 35.96157
C 62.28738 0.0 38.62539
C 64.59432 0.0 31.96584
C 64.59432 0.0 34.62966
C 66.90126 0.0 35.96157
C 66.90126 0.0 38.62539
C 69.2082 0.0 31.96584
C 69.2082 0.0 34.62966
C 71.51514 0.0 35.96157
C 71.51514 0.0 38.62539
C 73.82208 0.0 31.96584
C 73.82208 0.0 34.62966
C 76.12902 0.0 35.96157
C 76.12902 0.0 38.62539
C 78.43596 0.0 31.96584
C 78.43596 0.0 34.62966
C 80.7429 0.0 35.96157
C 80.7429 0.0 38.62539
C 83.04984 0.0 31.96584
C 83.04984 0.0 34.62966
C 85.35678 0.0 35.96157
C 85.35678 0.0 38.62539
C 87.66372 0.0 31.96584
C 87.66372 0.0 34.62966
C 89.97066 0.0 35.96157
C 89.97066 0.0 38.62539
C 92.2776 0.0 31.96584
C 92.2776 0.0 34.62966
C 94.58454 0.0 35.96157
C 94.58454 0.0 38.62539
C 0.0 0.0 39.9573
C 0.0 0.0 42.62112
C 2.30694 0.0 43.95303
C 2.30694 0.0 46.61685
C 4.61388 0.0 39.9573
C 4.61388 0.0 42.62112
C 6.92082 0.0 43.95303
C 6.92082 0.0 46.61685
C 9.22776 0.0 39.9573
C 9.22776 0.0 42.62112
C 11.5347 0.0 43.95303
C 11.5347 0.0 46.61685
C 13.84164 0.0 39.9573
C 13.84164 0.0 42.62112
C 16.14858 0.0 43.95303
C 16.14858 0.0 46.61685
C 18.45552 0.0 39.9573
C 18.45552 0.0 42.62112
C 20.76246 0.0 43.95303
C 20.76246 0.0 46.61685
C 23.0694 0.0 39.9573
C 23.0694 0.0 42.62112
C 25.37634 0.0 43.95303
C 25.37634 0.0 46.61685
C 27.68328 0.0 39.9573
C 27.68328 0.0 42.62112
C 29.99022 0.0 43.95303
C 29.99022 0.0 46.61685
C 32.29716 0.0 39.9573
C 32.29716 0.0 42.62112
C 34.6041 0.0 43.95303
C 34.6041 0.0 46.61685
C 36.91104 0.0 39.9573
C 36.91104 0.0 42.62112
C 39.21798 0.0 43.95303
C 39.21798 0.0 46.61685
C 41.52492 0.0 39.9573
C 41.52492 0.0 42.62112
C 43.83186 0.0 43.95303
C 43.83186 0.0 46.61685
C 46.1388 0.0 39.9573
C 46.1388 0.0 42.62112
C 48.44574 0.0 43.95303
C 48.44574 0.0 46.61685
C 50.75268 0.0 39.9573
C 50.75268 0.0 42.62112
C 53.05962 0.0 43.95303
C 53.05962 0.0 46.61685
C 55.36656 0.0 39.9573
C 55.36656 0.0 42.62112
C 57.6735 0.0 43.95303
C 57.6735 0.0 46.61685
C 59.98044 0.0 39.9573
C 59.98044 0.0 42.62112
C 62.28738 0.0 43.95303
C 62.28738 0.0 46.61685
C 64.59432 0.0 39.9573
C 64.59432 0.0 42.62112
C 66.90126 0.0 43.95303
C 66.90126 0.0 46.61685
C 69.2082 0.0 39.9573
C 69.2082 0.0 42.62112
C 71.51514 0.0 43.95303
C 71.51514 0.0 46.61685
C 73.82208 0.0 39.9573
C 73.82208 0.0 42.62112
C 76.12902 0.0 43.95303
C 76.12902 0.0 46.61685
C 78.43596 0.0 39.9573
C 78.43596 0.0 42.62112
C 80.7429 0.0 43.95303
C 80.7429 0.0 46.61685
C 83.04984 0.0 39.9573
C 83.04984 0.0 42.62112
C 85.35678 0.0 43.95303
C 85.35678 0.0 46.61685
C 87.66372 0.0 39.9573
C 87.66372 0.0 42.62112
C 89.97066 0.0 43.95303
C 89.97066 0.0 46.61685
C 92.2776 0.0 39.9573
C 92.2776 0.0 42.62112
C 94.58454 0.0 43.95303
C 94.58454 0.0 46.61685
C 0.0 0.0 47.94876
C 0.0 0.0 50.61258
C 2.30694 0.0 51.94449
C 2.30694 0.0 54.60831
C 4.61388 0.0 47.94876
C 4.61388 0.0 50.61258
C 6.92082 0.0 51.94449
C 6.92082 0.0 54.60831
C 9.22776 0.0 47.94876
C 9.22776 0.0 50.61258
C 11.5347 0.0 51.94449
C 11.5347 0.0 54.60831
C 13.84164 0.0 47.94876
C 13.84164 0.0 50.61258
C 16.14858 0.0 51.94449
C 16.14858 0.0 54.60831
C 18.45552 0.0 47.94876
C 18.45552 0.0 50.61258
C 20.76246 0.0 51.94449
C 20.76246 0.0 54.60831
C 23.0694 0.0 47.94876
C 23.0694 0.0 50.61258
C 25.37634 0.0 51.94449
C 25.37634 0.0 54.60831
C 27.68328 0.0 47.94876
C 27.68328 0.0 50.61258
C 29.99022 0.0 51.94449
C 29.99022 0.0 54.60831
C 32.29716 0.0 47.94876
C 32.29716 0.0 50.61258
C 34.6041 0.0 51.94449
C 34.6041 0.0 54.60831
C 36.91104 0.0 47.94876
C 36.91104 0.0 50.61258
C 39.21798 0.0 51.94449
C 39.21798 0.0 54.60831
C 41.52492 0.0 47.94876
C 41.52492 0.0 50.61258
C 43.83186 0.0 51.94449
C 43.83186 0.0 54.60831
C 46.1388 0.0 47.94876
C 46.1388 0.0 50.61258
C 48.44574 0.0 51.94449
C 48.44574 0.0 54.60831
C 50.75268 0.0 47.94876
C 50.75268 0.0 50.61258
C 53.05962 0.0 51.94449
C 53.05962 0.0 54.60831
C 55.36656 0.0 47.94876
C 55.36656 0.0 50.61258
C 57.6735 0.0 51.94449
C 57.6735 0.0 54.60831
C 59.98044 0.0 47.94876
C 59.98044 0.0 50.61258
C 62.28738 0.0 51.94449
C 62.28738 0.0 54.60831
C 64.59432 0.0 47.94876
C 64.59432 0.0 50.61258
C 66.90126 0.0 51.94449
C 66.90126 0.0 54.60831
C 69.2082 0.0 47.94876
C 69.2082 0.0 50.61258
C 71.51514 0.0 51.94449
C 71.51514 0.0 54.60831
C 73.82208 0.0 47.94876
C 73.82208 0.0 50.61258
C 76.12902 0.0 51.94449
C 76.12902 0.0 54.60831
C 78.43596 0.0 47.94876
C 78.43596 0.0 50.61258
C 80.7429 0.0 51.94449
C 80.7429 0.0 54.60831
C 83.04984 0.0 47.94876
C 83.04984 0.0 50.61258
C 85.35678 0.0 51.94449
C 85.35678 0.0 54.60831
C 87.66372 0.0 47.94876
C 87.66372 0.0 50.61258
C 89.97066 0.0 51.94449
C 89.97066 0.0 54.60831
C 92.2776 0.0 47.94876
C 92.2776 0.0 50.61258
C 94.58454 0.0 51.94449
C 94.58454 0.0 54.60831
C 0.0 0.0 55.94022
C 0.0 0.0 58.60404
C 2.30694 0.0 59.93595
C 2.30694 0.0 62.59977
C 4.61388 0.0 55.94022
C 4.61388 0.0 58.60404
C 6.92082 0.0 59.93595
C 6.92082 0.0 62.59977
C 9.22776 0.0 55.94022
C 9.22776 0.0 58.60404
C 11.5347 0.0 59.93595
C 11.5347 0.0 62.59977
C 13.84164 0.0 55.94022
C 13.84164 0.0 58.60404
C 16.14858 0.0 59.93595
C 16.14858 0.0 62.59977
C 18.45552 0.0 55.94022
C 18.45552 0.0 58.60404
C 20.76246 0.0 59.93595
C 20.76246 0.0 62.59977
C 23.0694 0.0 55.94022
C 23.0694 0.0 58.60404
C 25.37634 0.0 59.93595
C 25.37634 0.0 62.59977
C 27.68328 0.0 55.94022
C 27.68328 0.0 58.60404
C 29.99022 0.0 59.93595
C 29.99022 0.0 62.59977
C 32.29716 0.0 55.94022
C 32.29716 0.0 58.60404
C 34.6041 0.0 59.93595
C 34.6041 0.0 62.59977
C 36.91104 0.0 55.94022
C 36.91104 0.0 58.60404
C 39.21798 0.0 59.93595
C 39.21798 0.0 62.59977
C 41.52492 0.0 55.94022
C 41.52492 0.0 58.60404
C 43.83186 0.0 59.93595
C 43.83186 0.0 62.59977
C 46.1388 0.0 55.94022
C 46.1388 0.0 58.60404
C 48.44574 0.0 59.93595
C 48.44574 0.0 62.59977
C 50.75268 0.0 55.94022
C 50.75268 0.0 58.60404
C 53.05962 0.0 59.93595
C 53.05962 0.0 62.59977
C 55.36656 0.0 55.94022
C 55.36656 0.0 58.60404
C 57.6735 0.0 59.93595
C 57.6735 0.0 62.59977
C 59.98044 0.0 55.94022
C 59.98044 0.0 58.60404
C 62.28738 0.0 59.93595
C 62.28738 0.0 62.59977
C 64.59432 0.0 55.94022
C 64.59432 0.0 58.60404
C 66.90126 0.0 59.93595
C 66.90126 0.0 62.59977
C 69.2082 0.0 55.94022
C 69.2082 0.0 58.60404
C 71.51514 0.0 59.93595
C 71.51514 0.0 62.59977
C 73.82208 0.0 55.94022
C 73.82208 0.0 58.60404
C 76.12902 0.0 59.93595
C 76.12902 0.0 62.59977
C 78.43596 0.0 55.94022
C 78.43596 0.0 58.60404
C 80.7429 0.0 59.93595
C 80.7429 0.0 62.59977
C 83.04984 0.0 55.94022
C 83.04984 0.0 58.60404
C 85.35678 0.0 59.93595
C 85.35678 0.0 62.59977
C 87.66372 0.0 55.94022
C 87.66372 0.0 58.60404
C 89.97066 0.0 59.93595
C 89.97066 0.0 62.59977
C 92.2776 0.0 55.94022
C 92.2776 0.0 58.60404
C 94.58454 0.0 59.93595
C 94.58454 0.0 62.59977
C 0.0 0.0 63.93168
C 0.0 0.0 66.5955
C 2.30694 0.0 67.92741
C 2.30694 0.0 70.59123
C 4.61388 0.0 63.93168
C 4.61388 0.0 66.5955
C 6.92082 0.0 67.92741
C 6.92082 0.0 70.59123
C 9.22776 0.0 63.93168
C 9.22776 0.0 66.5955
C 11.5347 0.0 67.92741
C 11.5347 0.0 70.59123
C 13.84164 0.0 63.93168
C 13.84164 0.0 66.5955
C 16.14858 0.0 67.92741
C 16.14858 0.0 70.59123
C 18.45552 0.0 63.93168
C 18.45552 0.0 66.5955
C 20.76246 0.0 67.92741
C 20.76246 0.0 70.59123
C 23.0694 0.0 63.93168
C 23.0694 0.0 66.5955
C 25.37634 0.0 67.92741
C 25.37634 0.0 70.59123
C 27.68328 0.0 63.93168
C 27.68328 0.0 66.5955
C 29.99022 0.0 67.92741
C 29.99022 0.0 70.59123
C 32.29716 0.0 63.93168
C 32.29716 0.0 66.5955
C 34.6041 0.0 67.92741
C 34.6041 0.0 70.59123
C 36.91104 0.0 63.93168
C 36.91104 0.0 66.5955
C 39.21798 0.0 67.92741
C 39.21798 0.0 70.59123
C 41.52492 0.0 63.93168
C 41.52492 0.0 66.5955
C 43.83186 0.0 67.92741
C 43.83186 0.0 70.59123
C 46.1388 0.0 63.93168
C 46.1388 0.0 66.5955
C 48.44574 0.0 67.92741
C 48.44574 0.0 70.59123
C 50.75268 0.0 63.93168
C 50.75268 0.0 66.5955
C 53.05962 0.0 67.92741
C 53.05962 0.0 70.59123
C 55.36656 0.0 63.93168
C 55.36656 0.0 66.5955
C 57.6735 0.0 67.92741
C 57.6735 0.0 70.59123
C 59.98044 0.0 63.93168
C 59.98044 0.0 66.5955
C 62.28738 0.0 67.92741
C 62.28738 0.0 70.59123
C 64.59432 0.0 63.93168
C 64.59432 0.0 66.5955
C 66.90126 0.0 67.92741
C 66.90126 0.0 70.59123
C 69.2082 0.0 63.93168
C 69.2082 0.0 66.5955
C 71.51514 0.0 67.92741
C 71.51514 0.0 70.59123
C 73.82208 0.0 63.93168
C 73.82208 0.0 66.5955
C 76.12902 0.0 67.92741
C 76.12902 0.0 70.59123
C 78.43596 0.0 63.93168
C 78.43596 0.0 66.5955
C 80.7429 0.0 67.92741
C 80.7429 0.0 70.59123
C 83.04984 0.0 63.93168
C 83.04984 0.0 66.5955
C 85.35678 0.0 67.92741
C 85.35678 0.0 70.59123
C 87.66372 0.0 63.93168
C 87.66372 0.0 66.5955
C 89.97066 0.0 67.92741
C 89.97066 0.0 70.59123
C 92.2776 0.0 63.93168
C 92.2776 0.0 66.5955
C 94.58454 0.0 67.92741
C 94.58454 0.0 70.59123
C 0.0 0.0 71.92314
C 0.0 0.0 74.58696
C 2.30694 0.0 75.91887
C 2.30694 0.0 78.58269
C 4.61388 0.0 71.92314
C 4.61388 0.0 74.58696
C 6.92082 0.0 75.91887
C 6.92082 0.0 78.58269
C 9.22776 0.0 71.92314
C 9.22776 0.0 74.58696
C 11.5347 0.0 75.91887
C 11.5347 0.0 78.58269
C 13.84164 0.0 71.92314
C 13.84164 0.0 74.58696
C 16.14858 0.0 75.91887
C 16.14858 0.0 78.58269
C 18.45552 0.0 71.92314
C 18.45552 0.0 74.58696
C 20.76246 0.0 75.91887
C 20.76246 0.0 78.58269
C 23.0694 0.0 71.92314
C 23.0694 0.0 74.58696
C 25.37634 0.0 75.91887
C 25.37634 0.0 78.58269
C 27.68328 0.0 71.92314
C 27.68328 0.0 74.58696
C 29.99022 0.0 75.91887
C 29.99022 0.0 78.58269
C 32.29716 0.0 71.92314
C 32.29716 0.0 74.58696
C 34.6041 0.0 75.91887
C 34.6041 0.0 78.58269
C 36.91104 0.0 71.92314
C 36.91104 0.0 74.58696
C 39.21798 0.0 75.91887
C 39.21798 0.0 78.58269
C 41.52492 0.0 71.92314
C 41.52492 0.0 74.58696
C 43.83186 0.0 75.91887
C 43.83186 0.0 78.58269
C 46.1388 0.0 71.92314
C 46.1388 0.0 74.58696
C 48.44574 0.0 75.91887
C 48.44574 0.0 78.58269
C 50.75268 0.0 71.92314
C 50.75268 0.0 74.58696
C 53.05962 0.0 75.91887
C 53.05962 0.0 78.58269
C 55.36656 0.0 71.92314
C 55.36656 0.0 74.58696
C 57.6735 0.0 75.91887
C 57.6735 0.0 78.58269
C 59.98044 0.0 71.92314
C 59.98044 0.0 74.58696
C 62.28738 0.0 75.91887
C 62.28738 0.0 78.58269
C 64.59432 0.0 71.92314
C 64.59432 0.0 74.58696
C 66.90126 0.0 75.91887
C 66.90126 0.0 78.58269
C 69.2082 0.0 71.92314
C 69.2082 0.0 74.58696
C 71.51514 0.0 75.91887
C 71.51514 0.0 78.58269
C 73.82208 0.0 71.92314
C 73.82208 0.0 74.58696
C 76.12902 0.0 75.91887
C 76.12902 0.0 78.58269
C 78.43596 0.0 71.92314
C 78.43596 0.0 74.58696
C 80.7429 0.0 75.91887
C 80.7429 0.0 78.58269
C 83.04984 0.0 71.92314
C 83.04984 0.0 74.58696
C 85.35678 0.0 75.91887
C 85.35678 0.0 78.58269
C 87.66372 0.0 71.92314
C 87.66372 0.0 74.58696
C 89.97066 0.0 75.91887
C 89.97066 0.0 78.58269
C 92.2776 0.0 71.92314
C 92.2776 0.0 74.58696
C 94.58454 0.0 75.91887
C 94.58454 0.0 78.58269
C 0.0 0.0 79.9146
C 0.0 0.0 82.57842
C 2.30694 0.0 83.91033
C 2.30694 0.0 86.57415
C 4.61388 0.0 79.9146
C 4.61388 0.0 82.57842
C 6.92082 0.0 83.91033
C 6.92082 0.0 86.57415
C 9.22776 0.0 79.9146
C 9.22776 0.0 82.57842
C 11.5347 0.0 83.91033
C 11.5347 0.0 86.57415
C 13.84164 0.0 79.9146
C 13.84164 0.0 82.57842
C 16.14858 0.0 83.91033
C 16.14858 0.0 86.57415
C 18.45552 0.0 79.9146
C 18.45552 0.0 82.57842
C 20.76246 0.0 83.91033
C 20.76246 0.0 86.57415
C 23.0694 0.0 79.9146
C 23.0694 0.0 82.57842
C 25.37634 0.0 83.91033
C 25.37634 0.0 86.57415
C 27.68328 0.0 79.9146
C 27.68328 0.0 82.57842
C 29.99022 0.0 83.91033
C 29.99022 0.0 86.57415
C 32.29716 0.0 79.9146
C 32.29716 0.0 82.57842
C 34.6041 0.0 83.91033
C 34.6041 0.0 86.57415
C 36.91104 0.0 79.9146
C 36.91104 0.0 82.57842
C 39.21798 0.0 83.91033
C 39.21798 0.0 86.57415
C 41.52492 0.0 79.9146
C 41.52492 0.0 82.57842
C 43.83186 0.0 83.91033
C 43.83186 0.0 86.57415
C 46.1388 0.0 79.9146
C 46.1388 0.0 82.57842
C 48.44574 0.0 83.91033
C 48.44574 0.0 86.57415
C 50.75268 0.0 79.9146
C 50.75268 0.0 82.57842
C 53.05962 0.0 83.91033
C 53.05962 0.0 86.57415
C 55.36656 0.0 79.9146
C 55.36656 0.0 82.57842
C 57.6735 0.0 83.91033
C 57.6735 0.0 86.57415
C 59.98044 0.0 79.9146
C 59.98044 0.0 82.57842
C 62.28738 0.0 83.91033
C 62.28738 0.0 86.57415
C 64.59432 0.0 79.9146
C 64.59432 0.0 82.57842
C 66.90126 0.0 83.91033
C 66.90126 0.0 86.57415
C 69.2082 0.0 79.9146
C 69.2082 0.0 82.57842
C 71.51514 0.0 83.91033
C 71.51514 0.0 86.57415
C 73.82208 0.0 79.9146
C 73.82208 0.0 82.57842
C 76.12902 0.0 83.91033
C 76.12902 0.0 86.57415
C 78.43596 0.0 79.9146
C 78.43596 0.0 82.57842
C 80.7429 0.0 83.91033
C 80.7429 0.0 86.57415
C 83.04984 0.0 79.9146
C 83.04984 0.0 82.57842
C 85.35678 0.0 83.91033
C 85.35678 0.0 86.57415
C 87.66372 0.0 79.9146
C 87.66372 0.0 82.57842
C 89.97066 0.0 83.91033
C 89.97066 0.0 86.57415
C 92.2776 0.0 79.9146
C 92.2776 0.0 82.57842
C 94.58454 0.0 83.91033
C 94.58454 0.0 86.57415
C 0.0 0.0 87.90606
C 0.0 0.0 90.56988
C 2.30694 0.0 91.90179
C 2.30694 0.0 94.56561
C 4.61388 0.0 87.90606
C 4.61388 0.0 90.56988
C 6.92082 0.0 91.90179
C 6.92082 0.0 94.56561
C 9.22776 0.0 87.90606
C 9.22776 0.0 90.56988
C 11.5347 0.0 91.90179
C 11.5347 0.0 94.56561
C 13.84164 0.0 87.90606
C 13.84164 0.0 90.56988
C 16.14858 0.0 91.90179
C 16.14858 0.0 94.56561
C 18.45552 0.0 87.90606
C 18.45552 0.0 90.56988
C 20.76246 0.0 91.90179
C 20.76246 0.0 94.56561
C 23.0694 0.0 87.90606
C 23.0694 0.0 90.56988
C 25.37634 0.0 91.90179
C 25.37634 0.0 94.56561
C 27.68328 0.0 87.90606
C 27.68328 0.0 90.56988
C 29.99022 0.0 91.90179
C 29.99022 0.0 94.56561
C 32.29716 0.0 87.90606
C 32.29716 0.0 90.56988
C 34.6041 0.0 91.90179
C 34.6041 0.0 94.56561
C 36.91104 0.0 87.90606
C 36.91104 0.0 90.56988
C 39.21798 0.0 91.90179
C 39.21798 0.0 94.56561
C 41.52492 0.0 87.90606
C 41.52492 0.0 90.56988
C 43.83186 0.0 91.90179
C 43.83186 0.0 94.56561
C 46.1388 0.0 87.90606
C 46.1388 0.0 90.56988
C 48.44574 0.0 91.90179
C 48.44574 0.0 94.56561
C 50.75268 0.0 87.90606
C 50.75268 0.0 90.56988
C 53.05962 0.0 91.90179
C 53.05962 0.0 94.56561
C 55.36656 0.0 87.90606
C 55.36656 0.0 90.56988
C 57.6735 0.0 91.90179
C 57.6735 0.0 94.56561
C 59.98044 0.0 87.90606
C 59.98044 0.0 90.56988
C 62.28738 0.0 91.90179
C 62.28738 0.0 94.56561
C 64.59432 0.0 87.90606
C 64.59432 0.0 90.56988
C 66.90126 0.0 91.90179
C 66.90126 0.0 94.56561
C 69.2082 0.0 87.90606
C 69.2082 0.0 90.56988
C 71.51514 0.0 91.90179
C 71.51514 0.0 94.56561
C 73.82208 0.0 87.90606
C 73.82208 0.0 90.56988
C 76.12902 0.0 91.90179
C 76.12902 0.0 94.56561
C 78.43596 0.0 87.90606
C 78.43596 0.0 90.56988
C 80.7429 0.0 91.90179
C 80.7429 0.0 94.56561
C 83.04984 0.0 87.90606
C 83.04984 0.0 90.56988
C 85.35678 0.0 91.90179
C 85.35678 0.0 94.56561
C 87.66372 0.0 87.90606
C 87.66372 0.0 90.56988
C 89.97066 0.0 91.90179
C 89.97066 0.0 94.56561
C 92.2776 0.0 87.90606
C 92.2776 0.0 90.56988
C 94.58454 0.0 91.90179
C 94.58454 0.0 94.56561
